Ensembles • leadr
…
Some of our models are very correlated, which is to be expected for a simple data set.

The next step as described in the introductory diagram, is to create a new feature for each model from the out of fold predictions. leadr has a nice helper function for this:

blended <- oof_grab(models)
blended
#> # A tibble: 150 x 5
#>    value  value1 value2 value3 Species
#>    <fct>  <fct>  <fct>  <fct>  <fct>  
#>  1 setosa setosa setosa setosa setosa 
#>  2 setosa setosa setosa setosa setosa 
#>  3 setosa setosa setosa setosa setosa 
#>  4 setosa setosa setosa setosa setosa 
#>  5 setosa setosa setosa setosa setosa 
#>  6 setosa setosa setosa setosa setosa 
#>  7 setosa setosa setosa setosa setosa 
#>  8 setosa setosa setosa setosa setosa 
#>  9 setosa setosa setosa setosa setosa 
#> 10 setosa setosa setosa setosa setosa 
#> # ... with 140 more rows
…
