Introduction • leadr
…
Peaking

leadr also has tools to help you find ranking of models as the leaderboard gets big. Let’s add a few more models:

models <- map(
  rep("rf", 20),
  ~train(
    Species ~ .,
    data = iris
  )
)

walk(models, board)
board()
#> # A tibble: 25 x 13
#>     rank    id dir     model metric score public method   num group index 
#>    <dbl>  <id> <chr>   <chr> <chr>  <dbl>  <dbl> <chr>  <dbl> <dbl> <list>
#>  1    1.    25 models… rf    Accur… 0.959     NA boot     25.   24. <list…
#>  2    2.    21 models… rf    Accur… 0.959     NA boot     25.   20. <list…
#>  3    3.     6 models… rf    Accur… 0.956     NA boot     25.    5. <list…
#>  4    4.    16 models… rf    Accur… 0.955     NA boot     25.   15. <list…
#>  5    5.     2 models… rf    Accur… 0.955     NA boot     25.    2. <list…
#>  6    6.     9 models… rf    Accur… 0.953     NA boot     25.    8. <list…
#>  7    7.     7 models… rf    Accur… 0.953     NA boot     25.    6. <list…
#>  8    8.    20 models… rf    Accur… 0.953     NA boot     25.   19. <list…
#>  9    9.    17 models… rf    Accur… 0.952     NA boot     25.   16. <list…
#> 10   10.     5 models… glmn… Accur… 0.952     NA boot     25.    1. <list…
#> # ... with 15 more rows, and 2 more variables: tune <list>, seeds <list>
…
leadr::peak also takes a variable number of inputs. If we want to compare the last to the first model, it will return the smallest tibble that contains both. If it is under 20 rows, it will print the entire tibble.

board() %>%
  peak(at_last(), 1)
#> # A tibble: 23 x 13
#>     rank    id dir     model metric score public method   num group index 
#>    <dbl>  <id> <chr>   <chr> <chr>  <dbl>  <dbl> <chr>  <dbl> <dbl> <list>
#>  1    1.    25 models… rf    Accur… 0.959     NA boot     25.   24. <list…
#>  2    2.    21 models… rf    Accur… 0.959     NA boot     25.   20. <list…
#>  3    3.     6 models… rf    Accur… 0.956     NA boot     25.    5. <list…
#>  4    4.    16 models… rf    Accur… 0.955     NA boot     25.   15. <list…
#>  5    5.     2 models… rf    Accur… 0.955     NA boot     25.    2. <list…
#>  6    6.     9 models… rf    Accur… 0.953     NA boot     25.    8. <list…
#>  7    7.     7 models… rf    Accur… 0.953     NA boot     25.    6. <list…
#>  8    8.    20 models… rf    Accur… 0.953     NA boot     25.   19. <list…
#>  9    9.    17 models… rf    Accur… 0.952     NA boot     25.   16. <list…
#> 10   10.     5 models… glmn… Accur… 0.952     NA boot     25.    1. <list…
#> # ... with 13 more rows, and 2 more variables: tune <list>, seeds <list>
…
